재복습
…
하나의 요약값만 출력된다. 즉, summarise는 집단을 요약할때 사용된다.

Q2. 제조사와 구동방식에 따른 연비를 알고자 한다면?

- group_by에 두개의 변수를 모두 입력해주자.

mpg %>% mutate(mpg = (cty+hwy)/2) %>% 
    group_by(manufacturer, drv) %>% 
    summarise(drv_mean=mean(mpg))

## `summarise()` regrouping output by 'manufacturer' (override with `.groups` argument)

## # A tibble: 22 x 3
## # Groups:   manufacturer [15]
##    manufacturer drv   drv_mean
##    <chr>        <chr>    <dbl>
##  1 audi         4         21.0
##  2 audi         f         23.6
##  3 chevrolet    4         14.4
##  4 chevrolet    f         23.2
##  5 chevrolet    r         17.7
##  6 dodge        4         14.0
##  7 dodge        f         19.1
##  8 ford         4         15.2
##  9 ford         r         18.2
## 10 honda        f         28.5
## # ... with 12 more rows
…
